<svg width="59" height="59" viewBox="0 0 59 59" fill="none" xmlns="http://www.w3.org/2000/svg">
<circle cx="29.5" cy="29.5" r="29.5" fill="#0093DD"/>
<path d="M24.4 38.4C22.86 38.4 21.6 39.66 21.6 41.2C21.6 42.74 22.86 44 24.4 44C25.94 44 27.2 42.74 27.2 41.2C27.2 39.66 25.94 38.4 24.4 38.4ZM16 16V18.8H18.8L23.84 29.44L21.88 32.8C21.74 33.22 21.6 33.78 21.6 34.2C21.6 35.74 22.86 37 24.4 37H41.2001V34.2H24.96C24.82 34.2 24.68 34.06 24.68 33.92V33.7799L25.94 31.3999H36.3C37.42 31.3999 38.26 30.8399 38.68 29.9999L43.7201 20.9C44.0001 20.62 44.0001 20.48 44.0001 20.2C44.0001 19.36 43.4401 18.8 42.6001 18.8H21.88L20.62 16H16ZM38.4 38.4C36.86 38.4 35.6 39.66 35.6 41.2C35.6 42.74 36.86 44 38.4 44C39.9401 44 41.2001 42.74 41.2001 41.2C41.2001 39.66 39.9401 38.4 38.4 38.4Z" fill="white"/>
</svg>
